[
  {
    "score": 620,
    "level": 12,
    "settingTitle": "default setting",
    "playtime": 66,
    "win": "win"
  },
  {
    "score": 440,
    "level": 12,
    "settingTitle": "default setting",
    "playtime": 62,
    "win": "game over"
  },
  {
    "score": 530,
    "level": 12,
    "settingTitle": "default setting",
    "playtime": 79,
    "win": "win"
  },
  {
    "score": 580,
    "level": 12,
    "settingTitle": "default setting",
    "playtime": 83,
    "win": "win"
  },
  {
    "score": 390,
    "level": 12,
    "settingTitle": "dua lipa",
    "playtime": 50,
    "win": "win"
  },
  {
    "score": 380,
    "level": 11,
    "settingTitle": "dua lipa",
    "playtime": 50,
    "win": "win"
  },
  {
    "score": 400,
    "level": 11,
    "settingTitle": "dua lipa",
    "playtime": 59,
    "win": "win"
  },
  {
    "score": 300,
    "level": 12,
    "settingTitle": "dua lipa",
    "playtime": 55,
    "win": "win"
  },
  {
    "score": 310,
    "level": 12,
    "settingTitle": "dua lipa",
    "playtime": 62,
    "win": "win"
  }
]